Longitudinal missing data
…
Long data format

## # A tibble: 150 x 4
##       id group time  outcome
##    <int> <dbl> <chr>   <dbl>
##  1     1     0 T0    -0.893 
##  2     1     0 T1     0.626 
##  3     1     0 T2     1.68  
##  4     2     1 T0     1.09  
##  5     2     1 T1     1.66  
##  6     2     1 T2     2.63  
##  7     3     0 T0     0.537 
##  8     3     0 T1     2.00  
##  9     3     0 T2     3.06  
## 10     4     1 T0    -0.0806
## # ... with 140 more rows
…
